…
### Browse available statistics tables

``` r
# Returns all ~600 statistics tables
getEcosList(ECOS_key)
```

### Inspect item codes for a table

``` r
# Item structure for table 722Y001 (BOK base rate and lending/deposit rates)
getEcosCode(ECOS_key, "722Y001") |> select(ITEM_CODE, ITEM_NAME, CYCLE, START_TIME, END_TIME)
#> # A tibble: 48 × 5
#>    ITEM_CODE ITEM_NAME         CYCLE START_TIME END_TIME
#>    <chr>     <chr>             <chr> <chr>      <chr>   
#>  1 0101000   한국은행 기준금리 A     1999       2025    
#>  2 0101000   한국은행 기준금리 D     19990506   20260320
#>  3 0101000   한국은행 기준금리 M     199905     202602  
#>  4 0101000   한국은행 기준금리 Q     1999Q2     2025Q4  
#>  5 0102000   정부대출금금리    A     1994       2025    
#>  6 0102000   정부대출금금리    D     19940103   20260310
#>  7 0102000   정부대출금금리    M     199401     202602  
#>  8 0102000   정부대출금금리    Q     1994Q1     2025Q4  
#>  9 0109000   총액한도대출금리  A     1994       2012    
#> 10 0109000   총액한도대출금리  D     19940315   20250705
#> # ℹ 38 more rows
```
…
